<svg xmlns="http://www.w3.org/2000/svg" width="24" height="24" viewBox="0 0 24 24">
    <g fill="#FFF" fill-rule="nonzero">
        <path d="M16.714 18.429a.428.428 0 0 1-.428.428h-2.1a2.146 2.146 0 0 0 2.1 1.714.428.428 0 0 1 .428.429v.857h5.143v-7.286h-1.286a.428.428 0 0 1-.428-.428v-2.1a2.146 2.146 0 0 0-1.714 2.1.428.428 0 0 1-.429.428h-1.286v3.858z"/>
        <path d="M21.857 13.714v-9h-5.143v9h.892a3.002 3.002 0 0 1 2.965-2.571.428.428 0 0 1 .429.428v2.143h.857zM7.714 7.714H12a.428.428 0 0 1 .429.429v2.1a2.146 2.146 0 0 0 1.714-2.1.428.428 0 0 1 .428-.429h1.286v-3H7.714v3z"/>
        <path d="M8.143 11.143a.428.428 0 0 1 .428.428v2.143h3a.428.428 0 0 1 .429.429v7.714h3.857v-.463a3.002 3.002 0 0 1-2.571-2.965.428.428 0 0 1 .428-.429h2.143V8.571h-.891A3.002 3.002 0 0 1 12 11.143a.428.428 0 0 1-.429-.429V8.571h-6a.429.429 0 0 1 0-.857h1.286v-3H3.43v9h1.748a3.002 3.002 0 0 1 2.966-2.571z"/>
        <path d="M11.143 14.571h-3a.428.428 0 0 1-.429-.428v-2.1A2.146 2.146 0 0 0 6 14.143a.428.428 0 0 1-.429.428H3.43v7.286h7.714v-7.286zM1.286 0C.576 0 0 .576 0 1.286V21.01a2.1 2.1 0 0 1 2.571 0V1.286C2.571.576 1.995 0 1.286 0zM1.286 21.429a1.286 1.286 0 1 0 0 2.571 1.286 1.286 0 0 0 0-2.571z"/>
        <path d="M23.571 2.571H3.43v1.286h18.857a.428.428 0 0 1 .428.429v18a.428.428 0 0 1-.428.428H3.429A2.122 2.122 0 0 1 2.989 24h20.582a.429.429 0 0 0 .429-.429V3a.429.429 0 0 0-.429-.429z"/>
    </g>
</svg>
