<svg xmlns="http://www.w3.org/2000/svg" width="16" height="16" viewBox="0 0 16 16">
    <g fill="none" fill-rule="evenodd" stroke="#FFF" stroke-linecap="round" stroke-linejoin="round" stroke-width="1.2" transform="translate(.667 2)">
        <path d="M14.667 10.667c0 .736-.597 1.333-1.334 1.333h-12A1.333 1.333 0 0 1 0 10.667V3.333C0 2.597.597 2 1.333 2H4l1.333-2h4l1.334 2h2.666c.737 0 1.334.597 1.334 1.333v7.334z"/>
        <circle cx="7.333" cy="6.667" r="2.667"/>
    </g>
</svg>
