<?xml version="1.0" encoding="utf-8"?>
<!-- Generator: Adobe Illustrator 21.0.0, SVG Export Plug-In . SVG Version: 6.00 Build 0)  -->
<svg version="1.1" id="Calque_1" xmlns="http://www.w3.org/2000/svg" xmlns:xlink="http://www.w3.org/1999/xlink" x="0px" y="0px"
	 viewBox="0 0 120 120" style="enable-background:new 0 0 120 120;" xml:space="preserve">
<style type="text/css">
	.st0{fill:none;stroke:#fe0900;stroke-width:4;stroke-miterlimit:10;}
	.st1{fill:#fe0900;}
</style>
<g id="_x33_14G1w.tif">
	<path class="st0" d="M31.5,23.4H19.4c0,0-5.7,0.9-5.8,6.1c-0.1,5.2,0,54,0,54s0.3,6.5,6.4,6.4c6.2-0.1,11.4,0,11.4,0"/>
	<path class="st0" d="M88.5,23.3h12.2c0,0,5.7,0.9,5.8,6.1c0.1,5.2,0,54,0,54s-0.3,6.5-6.5,6.4c-6.2-0.1-11.5,0-11.5,0"/>
	<rect x="30.3" y="41.7" class="st1" width="59.5" height="3.8"/>
	<rect x="30.3" y="54.7" class="st1" width="46.6" height="3.8"/>
	<rect x="30.3" y="67.8" class="st1" width="59.5" height="3.8"/>
</g>
</svg>
