<svg xmlns="http://www.w3.org/2000/svg" width="24" height="24" viewBox="0 0 24 24">
    <g fill="none" fill-rule="evenodd" stroke="#8B999F" stroke-linecap="round" stroke-linejoin="round" stroke-width="2" transform="translate(2 2)">
        <circle cx="10" cy="10" r="10"/>
        <path d="M10 4v6l3 3"/>
    </g>
</svg>
