<svg xmlns="http://www.w3.org/2000/svg" width="68" height="68" viewBox="0 0 68 68">
    <g fill="none" fill-rule="evenodd">
        <circle cx="34" cy="34" r="34" fill="#689F38" fill-rule="nonzero"/>
        <path fill="#FFF" fill-rule="nonzero" d="M26.031 11.75h23.375c.585 0 1.063.478 1.063 1.063v43.562c0 .584-.478 1.063-1.063 1.063H16.47a1.066 1.066 0 0 1-1.063-1.063V22.906L26.031 11.75z"/>
        <path fill="#F1F5F6" fill-rule="nonzero" d="M24.969 22.906c.584 0 1.062-.478 1.062-1.062V11.75L15.406 22.906h9.563z"/>
        <path fill="#5D5E62" fill-rule="nonzero" d="M56.844 50.531a2.131 2.131 0 0 1-2.125 2.125H35.594a2.131 2.131 0 0 1-2.125-2.125v-8.5c0-1.169.956-2.125 2.125-2.125h19.125c1.169 0 2.125.956 2.125 2.125v8.5z"/>
        <path fill="#FFF" d="M44.339 48.946h-.872a.211.211 0 0 1-.145-.047.387.387 0 0 1-.087-.109l-1.09-1.877a.685.685 0 0 1-.062.145l-1.045 1.732a.686.686 0 0 1-.09.107.181.181 0 0 1-.131.049H40l1.562-2.517-1.5-2.375h.872c.06 0 .105.009.132.025a.252.252 0 0 1 .076.083l1.071 1.793a1.47 1.47 0 0 1 .078-.169l.983-1.607a.285.285 0 0 1 .079-.094.18.18 0 0 1 .107-.03h.837l-1.514 2.337 1.556 2.554zm3.762-.751v.75h-2.757v-4.89h.876v4.14H48.1zm3.596-3.251a.311.311 0 0 1-.083.103.18.18 0 0 1-.109.032.274.274 0 0 1-.148-.052 4.091 4.091 0 0 0-.19-.117 1.538 1.538 0 0 0-.259-.117 1.05 1.05 0 0 0-.35-.052c-.121 0-.228.015-.319.046a.662.662 0 0 0-.23.126.506.506 0 0 0-.138.195.66.66 0 0 0-.045.249c0 .115.03.21.092.287a.78.78 0 0 0 .246.196c.102.054.218.103.348.146.13.043.264.088.4.137.138.048.271.105.401.169.13.064.246.145.348.244.102.098.184.218.246.36s.093.314.093.517c0 .221-.036.428-.109.621a1.438 1.438 0 0 1-.832.843 1.824 1.824 0 0 1-.693.123 2.265 2.265 0 0 1-1.237-.379 1.828 1.828 0 0 1-.312-.264l.257-.436a.279.279 0 0 1 .084-.08.207.207 0 0 1 .111-.032c.054 0 .113.023.176.07.063.046.138.097.224.153.087.057.189.108.305.154.116.047.255.07.418.07.25 0 .443-.062.58-.185.136-.123.205-.299.205-.53a.505.505 0 0 0-.093-.314.755.755 0 0 0-.246-.204 1.794 1.794 0 0 0-.348-.14c-.13-.04-.263-.08-.397-.126a3.348 3.348 0 0 1-.397-.162 1.286 1.286 0 0 1-.349-.247 1.127 1.127 0 0 1-.246-.38 1.501 1.501 0 0 1-.092-.564 1.379 1.379 0 0 1 .882-1.286 1.71 1.71 0 0 1 .657-.118c.278 0 .534.045.768.135.235.09.434.217.6.38l-.219.429z"/>
    </g>
</svg>
