<svg xmlns="http://www.w3.org/2000/svg" xmlns:xlink="http://www.w3.org/1999/xlink" width="50" height="50" viewBox="0 0 50 50">
    <defs>
        <circle id="a" cx="24" cy="24" r="24"/>
        <rect id="c" width="66" height="48" rx="5.053"/>
    </defs>
    <g fill="none" fill-rule="evenodd" transform="translate(1 1)">
        <mask id="b" fill="#fff">
            <use xlink:href="#a"/>
        </mask>
        <use fill="#D8D8D8" stroke="#E0E0E0" xlink:href="#a"/>
        <g mask="url(#b)">
            <g transform="translate(-9)">
                <mask id="d" fill="#fff">
                    <use xlink:href="#c"/>
                </mask>
                <use fill="#FFF" xlink:href="#c"/>
                <path fill="#22438B" d="M1 0h22v48H1z" mask="url(#d)"/>
                <path fill="#FE0900" d="M43 0h22v48H43z" mask="url(#d)"/>
            </g>
        </g>
    </g>
</svg>
