<?xml version="1.0" encoding="utf-8"?>
<!-- Generator: Adobe Illustrator 21.0.0, SVG Export Plug-In . SVG Version: 6.00 Build 0)  -->
<svg version="1.1" id="Calque_1" xmlns="http://www.w3.org/2000/svg" xmlns:xlink="http://www.w3.org/1999/xlink" x="0px" y="0px"
	 viewBox="0 0 595.3 841.9" style="enable-background:new 0 0 595.3 841.9;" xml:space="preserve">
<style type="text/css">
	.st0{fill:none;stroke:#fe0900;stroke-width:29;stroke-miterlimit:10;}
</style>
<path class="st0" d="M34.2,330.8c0,0-1.7-27.4,43.6-28.2l450.7,0.9c0,0,31.6-1.7,32.5,25.6"/>
<path class="st0" d="M34.2,347.9V215.8c0,0,1.2-22.5,26.8-21.3l105.4,0c0,0,7.3,1.9,11,4.9l26.2,37.2c0,0,6.1,7.3,12.2,7.9l321-0.6
	c0,0,18.9,1.2,24.4,27.4V647c0,0-0.2,27.9-32,27.9s-469.2,0-469.2,0s-24.9-5.1-25.6-33.7V347.9z"/>
</svg>
