<?xml version="1.0" encoding="utf-8"?>
<!-- Generator: Adobe Illustrator 21.0.0, SVG Export Plug-In . SVG Version: 6.00 Build 0)  -->
<svg version="1.1" id="Calque_1" xmlns="http://www.w3.org/2000/svg" xmlns:xlink="http://www.w3.org/1999/xlink" x="0px" y="0px"
	 viewBox="0 0 48 48" style="enable-background:new 0 0 48 48;" xml:space="preserve">
<style type="text/css">
	.st0{fill:#FFFFFF;}
</style>
<path class="st0" d="M0.7,29.7c0,0-0.3,1.9,1.7,1.9c2,0.1,7.1,0.2,7.1,0.2l2,10.1c0,0,0.7,2.2,2.1,1.5c1.5-0.6,0.9-2.6,0.9-2.6
	l-2.2-11.8c0,0-0.2-1-1.1-1c-0.9,0-7.1-0.3-7.1-0.3l0.5-5.7l0.9,1.3c0,0,0.4,1,1.9,0.9c0,0-0.7,0.3-0.6,0.9c0,0-0.1,1,0.8,1.1
	c0.9,0,15.8,0.1,15.8,0.1c0.2-0.7,0.4-1.3,0.6-2c-0.4,0-0.9-0.1-1.3-0.1c0,0,1.1-0.5,1.1-1.5S23.6,21,22.7,21
	c-0.9,0-3.6-0.3-3.6-0.3l0.2-3.9c0,0,4.3-2.3,9.8,0v3.8L26,20.7c0,0-1.6,0.3-1.3,1.8c0.2,1.5,1.2,1.7,1.2,1.7L24,24.4
	c-0.2,0.7-0.4,1.3-0.6,2c5.7,0,11.4-0.1,17.1-0.1c0,0,0.9-0.3,0.8-1c-0.1-0.7-0.5-1-0.5-1s1.1,0,1.6-0.9c0.6-0.9,1.1-1.7,1.1-1.7
	l0.6,6.2l-6.9,0.3c0,0-1.5,0-1.8,1.5c-0.3,1.5-2,11.7-2,11.7s0,2,1,1.9c1-0.1,1.4-0.2,1.7-1c0.3-0.7,2.1-10.5,2.1-10.5l7.7-0.3
	c0,0,1.5,0.1,1.3-2.3l-1.1-13.5c0,0-0.4-2.2-1.7-2.2c-1.3,0-2.2,2.8-2.2,2.8l-1.9,4.2l-4.1,0.2c0,0-1.6,0.5-1.2,1.9
	c0.4,1.3,0.9,1.7,0.9,1.7l-4.8,0c0,0,1.1,0,1.2-1.7s-0.1-7.4-0.1-7.4S25,8.8,16.4,15l-0.3,7.8c0,0,0.2,1.3,0.8,1.5h-4.4
	c0,0,0.6-0.2,0.9-1.3c0.3-1-0.6-2.1-0.6-2.1s-0.2-0.3-1.7-0.3l-2.9,0l-3.2-6.4c0,0-1.3-0.9-2.1-0.3c-0.4,0.3-0.5,0.8-0.5,1
	C2.1,16.3,1.4,22,0.7,29.7z"/>
<ellipse class="st0" cx="24" cy="7.9" rx="3.2" ry="3.5"/>
<ellipse class="st0" cx="5" cy="9.1" rx="3.2" ry="3.5"/>
<ellipse class="st0" cx="43.2" cy="9.1" rx="3.2" ry="3.5"/>
</svg>
