<?xml version="1.0" encoding="utf-8"?>
<!-- Generator: Adobe Illustrator 21.0.0, SVG Export Plug-In . SVG Version: 6.00 Build 0)  -->
<svg version="1.1" id="Calque_1" xmlns="http://www.w3.org/2000/svg" xmlns:xlink="http://www.w3.org/1999/xlink" x="0px" y="0px"
	 viewBox="0 0 25 25" style="enable-background:new 0 0 25 25;" xml:space="preserve">
<style type="text/css">
	.st0{fill:#fe0900;}
	.st1{fill:none;enable-background:new    ;}
	.st2{fill:#FFFFFF;}
</style>
<ellipse class="st0" cx="12.5" cy="12.5" rx="12.5" ry="12.3"/>
<!--<path class="st1" d="z"/>-->
<path class="st2" d="M4.8,16.9v3.3H8l9.5-9.9L14.3,7L4.8,16.9z M20,7.8c0.3-0.3,0.3-0.9,0-1.3l-2-2.1c-0.3-0.3-0.9-0.3-1.2,0
	l-1.6,1.6l3.2,3.3C18.4,9.4,20,7.8,20,7.8z"/>
</svg>
