<svg xmlns="http://www.w3.org/2000/svg" width="60" height="60" viewBox="0 0 60 60">
    <g fill="none" fill-rule="evenodd">
        <g fill="#FDB813" fill-rule="nonzero">
            <path d="M56.484 8.79v7.03a1.74 1.74 0 0 1-1.757 1.758h-7.032a1.74 1.74 0 0 1-1.758-1.758 1.74 1.74 0 0 1 1.758-1.758h3.48A26.356 26.356 0 0 0 30.118 3.517c-14.555 0-26.601 11.812-26.601 26.367a1.74 1.74 0 0 1-1.758 1.758A1.74 1.74 0 0 1 0 29.883C0 13.395 13.63 0 30.117 0c8.895 0 17.227 4.043 22.852 10.723V8.789a1.74 1.74 0 0 1 1.758-1.758 1.74 1.74 0 0 1 1.757 1.758z"/>
            <path d="M30.117 3.516V0c8.895 0 17.227 4.043 22.852 10.723V8.789a1.74 1.74 0 0 1 1.758-1.758 1.74 1.74 0 0 1 1.757 1.758v7.031a1.74 1.74 0 0 1-1.757 1.758h-7.032a1.74 1.74 0 0 1-1.758-1.758 1.74 1.74 0 0 1 1.758-1.758h3.48A26.356 26.356 0 0 0 30.118 3.517zM60 29.883C60 46.37 46.605 60 30.117 60c-8.894 0-17.46-4.043-23.086-10.723v1.934c0 2.32-3.515 2.32-3.515 0V44.18a1.74 1.74 0 0 1 1.757-1.758h7.032c2.32 0 2.32 3.516 0 3.516h-3.48c4.92 6.574 12.96 10.546 21.292 10.546 14.555 0 26.367-12.047 26.367-26.601 0-2.32 3.516-2.32 3.516 0z"/>
            <path d="M60 29.883C60 46.37 46.605 60 30.117 60v-3.516c14.555 0 26.367-12.047 26.367-26.601 0-2.32 3.516-2.32 3.516 0z"/>
        </g>
        <g fill-rule="nonzero" transform="translate(21 9)">
            <circle cx="9" cy="4" r="4" fill="#FDB813"/>
            <path fill="#2D88AE" d="M10.494 8.89a6.459 6.459 0 0 0-2.729.032c-5.931.7-7.858 7.606-7.314 12.872.236 2.276 3.804 2.3 3.566 0-.198-1.92-.113-4.815.9-6.874v7.505c0 .089.01.171.014.257-.003.04-.012.075-.012.116 0 5.955-.01 11.909-.255 17.86-.109 2.645 3.97 2.634 4.077 0 .191-4.665.24-9.33.25-13.998.194.013.387.013.58.002.012 4.667.059 9.333.249 13.995.108 2.635 4.186 2.646 4.077 0-.245-5.95-.253-11.904-.253-17.859a2.26 2.26 0 0 0-.062-.514c-.006-2.586-.104-5.174-.074-7.758 1.215 2.068 1.325 5.222 1.115 7.266-.24 2.3 3.33 2.276 3.566 0 .556-5.375-1.463-12.46-7.695-12.903z"/>
        </g>
    </g>
</svg>
