<svg xmlns="http://www.w3.org/2000/svg" width="24" height="24" viewBox="0 0 24 24">
    <path fill="none" fill-rule="evenodd" stroke="#E0E0E0" d="M6.317 21.48L12 18.506l5.683 2.974a.173.173 0 0 0 .251-.183L16.85 15l4.594-4.457a.173.173 0 0 0-.096-.296l-6.35-.918-2.842-5.733a.173.173 0 0 0-.31 0L9.002 9.328l-6.349.918a.173.173 0 0 0-.096.296L7.151 15l-1.085 6.298a.173.173 0 0 0 .25.183z"/>
</svg>
