<?xml version="1.0" encoding="utf-8"?>
<!-- Generator: Adobe Illustrator 21.0.0, SVG Export Plug-In . SVG Version: 6.00 Build 0)  -->
<svg version="1.1" id="Calque_1" xmlns="http://www.w3.org/2000/svg" xmlns:xlink="http://www.w3.org/1999/xlink" x="0px" y="0px"
	 viewBox="0 0 48 48" style="enable-background:new 0 0 48 48;" xml:space="preserve">
<style type="text/css">
	.st0{fill:#FFFFFF;}
	.st1{fill:none;stroke:url(#SVGID_1_);stroke-miterlimit:10;}
	.st2{fill:#F90000;}
	.st3{font-family:'MyriadPro-Regular';}
	.st4{font-size:4.5459px;}
	.st5{font-family:'Helvetica';}
	.st6{font-size:15.6702px;}
</style>
<path class="st0" d="M-5.3,25.7"/>
<path class="st0" d="M17.3,23.3"/>
<linearGradient id="SVGID_1_" gradientUnits="userSpaceOnUse" x1="27.3193" y1="5.1752" x2="20.6807" y2="42.8248">
	<stop  offset="0" style="stop-color:#FFFFFF"/>
	<stop  offset="0.1994" style="stop-color:#FCFCFC"/>
	<stop  offset="0.3337" style="stop-color:#F3F3F3"/>
	<stop  offset="0.4489" style="stop-color:#E4E4E4"/>
	<stop  offset="0.5533" style="stop-color:#CFCFCF"/>
	<stop  offset="0.6504" style="stop-color:#B3B3B3"/>
	<stop  offset="0.7422" style="stop-color:#919191"/>
	<stop  offset="0.8298" style="stop-color:#686868"/>
	<stop  offset="0.914" style="stop-color:#393939"/>
	<stop  offset="0.9928" style="stop-color:#050505"/>
	<stop  offset="1" style="stop-color:#000000"/>
</linearGradient>
<circle class="st1" cx="24" cy="24" r="18.6"/>
<path class="st2" d="M6.5,19h34.8c0,0-3.1-12.8-17.4-13.2C24,5.8,11,5.1,6.5,19z"/>
<text transform="matrix(1.09 0 0 1 8.9023 17.376)" class="st0 st3 st4">JUL</text>
<text transform="matrix(1.016 0 0 1 23.0359 31.3996)" class="st5 st6">7</text>
<text transform="matrix(1.2271 0 0 1 14.3753 31.3997)" class="st5 st6">1</text>
</svg>
