<?xml version="1.0" encoding="utf-8"?>
<!-- Generator: Adobe Illustrator 21.0.0, SVG Export Plug-In . SVG Version: 6.00 Build 0)  -->
<svg version="1.1" id="Calque_1" xmlns="http://www.w3.org/2000/svg" xmlns:xlink="http://www.w3.org/1999/xlink" x="0px" y="0px"
	 viewBox="0 0 24 24" style="enable-background:new 0 0 24 24;" xml:space="preserve">
<style type="text/css">
	.st0{fill:none;stroke:#EFAD4D;stroke-miterlimit:10;}
</style>
<polygon class="st0" points="2,9.7 9.2,9.1 12,2.5 14.8,9.1 22,9.7 16.6,14.5 18.2,21.5 12,17.8 5.8,21.5 7.5,14.5 "/>
</svg>
