<?xml version="1.0" encoding="utf-8"?>
<!-- Generator: Adobe Illustrator 21.0.0, SVG Export Plug-In . SVG Version: 6.00 Build 0)  -->
<svg version="1.1" id="Calque_1" xmlns="http://www.w3.org/2000/svg" xmlns:xlink="http://www.w3.org/1999/xlink" x="0px" y="0px"
	 viewBox="0 0 28 28" style="enable-background:new 0 0 28 28;" xml:space="preserve">
<style type="text/css">
	.st0{fill:none;stroke:#FFFFFF;stroke-miterlimit:10;}
</style>
<rect x="1.8" y="5.5" class="st0" width="24.2" height="17"/>
<path class="st0" d="M1.8,6.5L12,16c0,0,2.2,2.1,4.4,0L26,6.5"/>
<line class="st0" x1="26" y1="21" x2="18.1" y2="14"/>
<line class="st0" x1="1.8" y1="21" x2="10.3" y2="14.5"/>
</svg>
