<svg xmlns="http://www.w3.org/2000/svg" xmlns:xlink="http://www.w3.org/1999/xlink" width="40" height="40" viewBox="0 0 40 40">
    <defs>
        <path id="a" d="M.187.18h39.615v23.927a.323.323 0 0 1-.321.326H.508a.323.323 0 0 1-.321-.326V.18z"/>
        <path id="c" d="M39.813 6.417H.187V2.432c0-1.13.906-2.05 2.02-2.05h35.586c1.114 0 2.02.92 2.02 2.05v3.985z"/>
        <path id="e" d="M20.896 3.246H1.462A1.446 1.446 0 0 1 .027 1.789C.027.985.67.333 1.462.333h19.434c.792 0 1.435.652 1.435 1.456 0 .804-.643 1.457-1.435 1.457z"/>
        <path id="g" d="M1.704 3.304a1.48 1.48 0 0 1-1.47-1.492 1.48 1.48 0 0 1 1.47-1.49c.811 0 1.47.667 1.47 1.49a1.48 1.48 0 0 1-1.47 1.492z"/>
        <path id="i" d="M1.48 3.304A1.48 1.48 0 0 1 .01 1.812 1.48 1.48 0 0 1 1.48.322c.81 0 1.469.667 1.469 1.49a1.48 1.48 0 0 1-1.47 1.492z"/>
        <path id="k" d="M.765 1.117H.478L.134.104H.42L.616.72.81.104h.275l.196.617.195-.617h.287l-.345 1.013h-.287L.95.558z"/>
        <path id="m" d="M.853 1.117H.566L.22.104h.287L.703.72.898.104h.276l.195.617.195-.617h.287l-.344 1.013H1.22L1.036.558z"/>
        <path id="o" d="M.929 1.117H.642L.297.104h.287L.78.72.974.104h.276l.195.617.195-.617h.287l-.344 1.013h-.287L1.112.558z"/>
        <path id="q" d="M.54.237h5.796c.16 0 .29.131.29.294v5.884c0 .163-.13.294-.29.294H.54a.292.292 0 0 1-.29-.294V.531C.25.368.38.237.54.237z"/>
        <path id="s" d="M.54.237h5.796c.16 0 .29.131.29.294v5.884c0 .163-.13.294-.29.294H.54a.292.292 0 0 1-.29-.294V.531C.25.368.38.237.54.237z"/>
        <path id="u" d="M.475.237h5.797c.16 0 .29.131.29.294v5.884c0 .163-.13.294-.29.294H.475a.292.292 0 0 1-.29-.294V.531c0-.163.13-.294.29-.294z"/>
        <path id="w" d="M.54.237h16.81c.16 0 .29.131.29.294v5.884c0 .163-.13.294-.29.294H.54a.292.292 0 0 1-.29-.294V.531C.25.368.378.237.54.237z"/>
        <path id="y" d="M.522.237H22.26c.16 0 .29.131.29.294v5.884c0 .163-.13.294-.29.294H.52a.292.292 0 0 1-.29-.294V.531c0-.163.13-.294.29-.294z"/>
        <path id="A" d="M.475.237h21.74c.16 0 .29.131.29.294v5.884c0 .163-.13.294-.29.294H.474a.292.292 0 0 1-.29-.294V.531c0-.163.13-.294.29-.294z"/>
        <path id="C" d="M.29.237h11.884c.16 0 .29.131.29.294v5.884c0 .163-.13.294-.29.294H.29A.292.292 0 0 1 0 6.415V.531C0 .368.13.237.29.237z"/>
        <path id="E" d="M.313.237h4.348c.16 0 .29.131.29.294v5.884c0 .163-.13.294-.29.294H.313a.292.292 0 0 1-.29-.294V.531c0-.163.13-.294.29-.294z"/>
        <path id="G" d="M.464.237H6.26c.16 0 .29.131.29.294v5.884c0 .163-.13.294-.29.294H.464a.292.292 0 0 1-.29-.294V.531c0-.163.13-.294.29-.294z"/>
    </defs>
    <g fill="none" fill-rule="evenodd">
        <g transform="translate(0 11.185)">
            <mask id="b" fill="#fff">
                <use xlink:href="#a"/>
            </mask>
            <path fill="#FFF" d="M-1.263 25.904h42.514V-1.29H-1.263z" mask="url(#b)"/>
        </g>
        <g transform="translate(0 5.146)">
            <mask id="d" fill="#fff">
                <use xlink:href="#c"/>
            </mask>
            <path fill="#5D5E62" d="M-1.263 7.888h42.526v-8.977H-1.263z" mask="url(#d)"/>
        </g>
        <g transform="translate(2.8 6.756)">
            <mask id="f" fill="#fff">
                <use xlink:href="#e"/>
            </mask>
            <path fill="#FFF" d="M-1.422 4.717H23.78v-5.855H-1.422z" mask="url(#f)"/>
        </g>
        <g transform="translate(34 6.756)">
            <mask id="h" fill="#fff">
                <use xlink:href="#g"/>
            </mask>
            <path fill="#FE0900" d="M-1.215 4.775h5.837V-1.15h-5.837z" mask="url(#h)"/>
        </g>
        <g transform="translate(30 6.756)">
            <mask id="j" fill="#fff">
                <use xlink:href="#i"/>
            </mask>
            <path fill="#E0E0E0" d="M-1.44 4.775h5.838V-1.15h-5.837z" mask="url(#j)"/>
        </g>
        <g transform="translate(3.6 7.964)">
            <mask id="l" fill="#fff">
                <use xlink:href="#k"/>
            </mask>
            <path fill="#69D2E7" d="M-1.316 2.588h4.529v-3.955h-4.529z" mask="url(#l)"/>
        </g>
        <g transform="translate(5.2 7.964)">
            <mask id="n" fill="#fff">
                <use xlink:href="#m"/>
            </mask>
            <path fill="#69D2E7" d="M-1.228 2.588H3.3v-3.955h-4.53z" mask="url(#n)"/>
        </g>
        <g transform="translate(6.8 7.964)">
            <mask id="p" fill="#fff">
                <use xlink:href="#o"/>
            </mask>
            <path fill="#69D2E7" d="M-1.152 2.588h4.528v-3.955h-4.528z" mask="url(#p)"/>
        </g>
        <g transform="translate(1.2 12.393)">
            <mask id="r" fill="#fff">
                <use xlink:href="#q"/>
            </mask>
            <path fill="#69D2E7" d="M-1.2 8.18h9.275v-9.414H-1.2z" mask="url(#r)"/>
        </g>
        <g transform="translate(1.2 27.691)">
            <mask id="t" fill="#fff">
                <use xlink:href="#s"/>
            </mask>
            <path fill="#69D2E7" d="M-1.2 8.18h9.275v-9.414H-1.2z" mask="url(#t)"/>
        </g>
        <g transform="translate(8.8 12.393)">
            <mask id="v" fill="#fff">
                <use xlink:href="#u"/>
            </mask>
            <path fill="#F1F5F6" d="M-1.264 8.18h9.276v-9.414h-9.276z" mask="url(#v)"/>
        </g>
        <g transform="translate(1.2 20.042)">
            <mask id="x" fill="#fff">
                <use xlink:href="#w"/>
            </mask>
            <path fill="#69D2E7" d="M-1.2 8.18h20.29v-9.414H-1.2z" mask="url(#x)"/>
        </g>
        <g transform="translate(16 12.393)">
            <mask id="z" fill="#fff">
                <use xlink:href="#y"/>
            </mask>
            <path fill="#69D2E7" d="M-1.217 8.18H24v-9.414H-1.217z" mask="url(#z)"/>
        </g>
        <g transform="translate(8.8 27.691)">
            <mask id="B" fill="#fff">
                <use xlink:href="#A"/>
            </mask>
            <path fill="#E0E0E0" d="M-1.264 8.18h25.218v-9.414H-1.264z" mask="url(#B)"/>
        </g>
        <g transform="translate(20 20.042)">
            <mask id="D" fill="#fff">
                <use xlink:href="#C"/>
            </mask>
            <path fill="#CFF1F8" d="M-1.45 8.18h15.363v-9.414H-1.449z" mask="url(#D)"/>
        </g>
        <g transform="translate(33.6 20.042)">
            <mask id="F" fill="#fff">
                <use xlink:href="#E"/>
            </mask>
            <path fill="#E0E0E0" d="M-1.426 8.18H6.4v-9.414h-7.826z" mask="url(#F)"/>
        </g>
        <g transform="translate(32 27.691)">
            <mask id="H" fill="#fff">
                <use xlink:href="#G"/>
            </mask>
            <path fill="#F1F5F6" d="M-1.275 8.18H8v-9.414h-9.275z" mask="url(#H)"/>
        </g>
    </g>
</svg>
