<svg xmlns="http://www.w3.org/2000/svg" xmlns:xlink="http://www.w3.org/1999/xlink" width="40" height="40" viewBox="0 0 40 40">
    <defs>
        <path id="a" d="M23.588 21.645c-2.416 1.024-5.045 1.536-7.885 1.535-1.279 0-2.588-.12-3.926-.359-1.844 1.316-3.91 2.274-6.2 2.872-.536.135-1.175.254-1.919.359h-.067a.694.694 0 0 1-.457-.18.745.745 0 0 1-.256-.47.454.454 0 0 1-.023-.146c0-.052.004-.101.011-.146a.482.482 0 0 1 .045-.134l.056-.112.078-.123c.052-.083.082-.12.09-.112.006.007.04-.03.1-.112.06-.083.089-.117.089-.102.074-.09.245-.276.513-.56a8.84 8.84 0 0 0 .58-.662c.119-.157.286-.373.502-.65.216-.277.401-.565.557-.864.157-.3.31-.628.458-.987-1.844-1.077-3.294-2.4-4.35-3.97C.53 15.15 0 13.474 0 11.694c0-2.079.699-4 2.097-5.765C3.494 4.165 5.4 2.77 7.817 1.745 10.235.721 12.864.21 15.704.21s5.468.512 7.885 1.536c2.416 1.025 4.323 2.42 5.72 4.185 1.399 1.764 2.097 3.686 2.097 5.765 0 2.08-.698 4-2.096 5.766-1.398 1.765-3.305 3.16-5.72 4.184z"/>
    </defs>
    <g fill="none" fill-rule="evenodd" transform="translate(0 4)">
        <use fill="#69D2E7" xlink:href="#a"/>
        <path fill="#2D88AE" d="M38.387 22.475c-1.056 1.563-2.505 2.883-4.349 3.96.149.36.301.688.457.988.156.299.343.587.558.863.216.277.383.494.502.65.119.158.312.378.58.662a15.612 15.612 0 0 1 .602.662c.045.052.078.09.1.112.022.022.052.06.09.112.037.052.062.094.077.123l.056.112.044.135c.03.09.033.138.011.145-.022.008-.029.057-.022.147a.83.83 0 0 1-.29.493.67.67 0 0 1-.49.157 18.524 18.524 0 0 1-1.919-.36c-2.29-.598-4.357-1.555-6.2-2.871-1.34.239-2.648.359-3.927.359-4.03 0-7.539-.987-10.527-2.961.862.06 1.516.09 1.962.09a23.44 23.44 0 0 0 6.892-1.01c2.201-.674 4.164-1.638 5.89-2.894 1.858-1.377 3.285-2.962 4.282-4.756.997-1.795 1.494-3.695 1.494-5.699a11.64 11.64 0 0 0-.513-3.41c1.918 1.062 3.435 2.394 4.55 3.994 1.116 1.6 1.674 3.32 1.674 5.16 0 1.795-.528 3.474-1.584 5.037z"/>
    </g>
</svg>
