[
	{ "id": "1", "resourceId": "b", "start": "2017-05-15T02:00:00", "end": "2017-05-15T07:00:00", "title": "event 1" },
	{ "id": "2", "resourceId": "c", "start": "2017-05-15T05:00:00", "end": "2017-05-15T22:00:00", "title": "event 2" },
	{ "id": "3", "resourceId": "d", "start": "2017-05-14", "end": "2017-05-16", "title": "event 3" },
	{ "id": "4", "resourceId": "e", "start": "2017-05-15T03:00:00", "end": "2017-05-15T08:00:00", "title": "event 4" },
	{ "id": "5", "resourceId": "f", "start": "2017-05-15T00:30:00", "end": "2017-05-15T02:30:00", "title": "event 5" }
]
