<svg xmlns="http://www.w3.org/2000/svg" width="24" height="24" viewBox="0 0 24 24">
    <path fill="#FE0900" fill-rule="nonzero" d="M23.961 17.987c0 .525-.148 1.011-.384 1.439l-7.566-8.453 7.484-6.539c.29.462.466 1.004.466 1.59v11.963zm-11.98-5.48L22.394 3.41a2.961 2.961 0 0 0-1.428-.377H2.996a2.95 2.95 0 0 0-1.428.377l10.413 9.099zm2.903-.55l-2.41 2.108a.748.748 0 0 1-.986 0l-2.411-2.108-7.661 8.561c.459.288.997.46 1.58.46h17.97c.582 0 1.12-.172 1.58-.46l-7.662-8.56zM.467 4.434A2.967 2.967 0 0 0 0 6.024v11.963c0 .525.147 1.011.385 1.439l7.564-8.455L.467 4.434z"/>
</svg>
